{
    "dialog.maxHeight": 5,
    "coc.preferences.formatOnSaveFiletypes": [
        "css",
        "markdown",
        "javascript",
        "html",
        "graphql",
        "json",
        "cpp",
        "json"
    ],
    "diagnostic.checkCurrentLine": true,
    "languageserver": {
        "ccls": {
            "command": "ccls",
            "trace.server": "verbose",
            "filetypes": [
                "c",
                "cc",
                "cpp",
                "c++",
                "objc",
                "objcpp"
            ],
            "rootPatterns": [
                ".ccls",
                "compile_commands.json",
                ".git/",
                ".hg/"
            ],
            "initializationOptions": {
                "cache": {
                    "directory": "/tmp/ccls"
                }
            }
        }
    },
    "coc.source.vimtex.filetypes": [
      "tex",
      "plaintex"
    ]
}
